…
Sample features:
patient: c1, c2, c3, p1, p2, p3, p4, p5, p6
type: healthy, peanut allergic
condition: anti ige, media, peanut extract
timepoint: 15m, 30m
```

### Sample Data

`experiment` is an R list which contains the parameters you supplied when setting up the experiment, in addition to various parameters created by Astrolabe. For example, you can access the experiment samples list using `experiment$samples`:

```
> print(experiment$samples)
# A tibble: 54 x 3
   SampleId             Name             Filename
      <chr>            <chr>                <chr>
 1        1 C1 15min antiIgE C1_15min_antiIgE.fcs
 2        2   C2 15min media   C2_15min_media.fcs
 3        3 C1 30min antiIgE C1_30min_antiIgE.fcs
 4        4      C1 30min PN      C1_30min_PN.fcs
 5        5   C1 30min media   C1_30min_media.fcs
 6        6      C1 15min PN      C1_15min_PN.fcs
 7        7 C2 30min antiIgE C2_30min_antiIgE.fcs
 8        8 C2 15min antiIgE C2_antiIgE_15min.fcs
 9        9      C2 15min PN      C2_15min_PN.fcs
10       10      C2 30min PN      C2_30min_PN.fcs
# ... with 44 more rows
```
…
 1                           Basophil  2219
 2                             B Cell   211
 3 CD141+ Conventional Dendritic Cell   714
 4                     CD14+ Monocyte 20945
 5                     CD16+ Monocyte   652
 6                      CD16- NK Cell   612
 7                        CD4+ T Cell 37815
 8                        CD8+ T Cell 21437
 9                        Granulocyte 16924
10                 Myeloid_unassigned  4502
11                    Root_unassigned  3297
12                  T Cell_unassigned  5914
>
> sampleCellSubsetChannelStatistics(sample) %>% dplyr::arrange(CellSubset)
# A tibble: 336 x 5
   CellSubset ChannelName      Mean        Sd    Median
        <chr>       <chr>     <dbl>     <dbl>     <dbl>
 1   Basophil       CD66b 1.0648623 0.8579865 0.9551815
 2   Basophil     HLA_ABC 3.5587049 0.6760540 3.5720787
 3   Basophil        CD19 0.3356665 0.5086242 0.0000000
 4   Basophil      CD45RA 0.6741676 0.6827153 0.5181072
 5   Basophil       CD141 0.3759006 0.5336876 0.0181990
 6   Basophil         CD4 0.1399595 0.3510070 0.0000000
 7   Basophil        CD8a 0.2580162 0.4292534 0.0000000
 8   Basophil        CD20 0.5901105 0.5963551 0.4241660
 9   Basophil        CD16 1.3112481 1.1552829 1.0417074
10   Basophil       CD66a 2.5811629 1.6747920 2.2227098
# ... with 326 more rows
```

### Experiment Analyses

The subset cell counts over all samples can be accessed using `orloj::experimentCellSubsetCounts`:

```
> experimentCellSubsetCounts(experiment) %>% dplyr::arrange(CellSubset)
# A tibble: 689 x 5
   SampleId             Name             Filename CellSubset     N
      <chr>            <chr>                <chr>      <chr> <int>
 1        1 C1 15min antiIgE C1_15min_antiIgE.fcs   Basophil  2219
 2        2   C2 15min media   C2_15min_media.fcs   Basophil  2916
 3        3 C1 30min antiIgE C1_30min_antiIgE.fcs   Basophil  2321
 4        4      C1 30min PN      C1_30min_PN.fcs   Basophil  1943
 5        5   C1 30min media   C1_30min_media.fcs   Basophil  2565
 6        6      C1 15min PN      C1_15min_PN.fcs   Basophil  2438
 7        7 C2 30min antiIgE C2_30min_antiIgE.fcs   Basophil  3382
 8        8 C2 15min antiIgE C2_antiIgE_15min.fcs   Basophil  4949
 9        9      C2 15min PN      C2_15min_PN.fcs   Basophil  3036
10       10      C2 30min PN      C2_30min_PN.fcs   Basophil  2881
# ... with 679 more rows
```

And similarly for subset channel intensity statistics:

```
> experimentCellSubsetChannelStatistics(experiment) %>% dplyr::arrange(CellSubset)
# A tibble: 19,292 x 8
   SampleId             Name             Filename CellSubset ChannelName      Mean        Sd    Median
      <chr>            <chr>                <chr>      <chr>       <chr>     <dbl>     <dbl>     <dbl>
 1        1 C1 15min antiIgE C1_15min_antiIgE.fcs   Basophil       CD66b 1.0648623 0.8579865 0.9551815
 2        1 C1 15min antiIgE C1_15min_antiIgE.fcs   Basophil     HLA_ABC 3.5587049 0.6760540 3.5720787
 3        1 C1 15min antiIgE C1_15min_antiIgE.fcs   Basophil        CD19 0.3356665 0.5086242 0.0000000
 4        1 C1 15min antiIgE C1_15min_antiIgE.fcs   Basophil      CD45RA 0.6741676 0.6827153 0.5181072
 5        1 C1 15min antiIgE C1_15min_antiIgE.fcs   Basophil       CD141 0.3759006 0.5336876 0.0181990
 6        1 C1 15min antiIgE C1_15min_antiIgE.fcs   Basophil         CD4 0.1399595 0.3510070 0.0000000
 7        1 C1 15min antiIgE C1_15min_antiIgE.fcs   Basophil        CD8a 0.2580162 0.4292534 0.0000000
 8        1 C1 15min antiIgE C1_15min_antiIgE.fcs   Basophil        CD20 0.5901105 0.5963551 0.4241660
 9        1 C1 15min antiIgE C1_15min_antiIgE.fcs   Basophil        CD16 1.3112481 1.1552829 1.0417074
10        1 C1 15min antiIgE C1_15min_antiIgE.fcs   Basophil       CD66a 2.5811629 1.6747920 2.2227098
# ... with 19,282 more rows
```
…
